[gd_scene load_steps=7 format=3 uid="uid://dukhsu2pq5am0"]

[ext_resource type="Texture2D" uid="uid://dsrq1j6vsacr7" path="res://res/img/tile.png" id="1_24q6a"]
[ext_resource type="Texture2D" uid="uid://btewwvahaet14" path="res://res/img/tile_selection.png" id="2_bd53p"]
[ext_resource type="Script" path="res://TileMap.gd" id="3_d4xkm"]

[sub_resource type="TileSetAtlasSource" id="TileSetAtlasSource_3bqcy"]
texture = ExtResource("1_24q6a")
texture_region_size = Vector2i(64, 64)
0:0/0 = 0

[sub_resource type="TileSetAtlasSource" id="TileSetAtlasSource_jny7b"]
texture = ExtResource("2_bd53p")
texture_region_size = Vector2i(64, 64)
0:0/0 = 0

[sub_resource type="TileSet" id="TileSet_kbqol"]
tile_size = Vector2i(64, 64)
sources/1 = SubResource("TileSetAtlasSource_3bqcy")
sources/2 = SubResource("TileSetAtlasSource_jny7b")

[node name="NewMap" type="Node2D"]

[node name="TileMap" type="TileMap" parent="."]
tile_set = SubResource("TileSet_kbqol")
rendering_quadrant_size = 9
format = 2
layer_1/tile_data = PackedInt32Array()
script = ExtResource("3_d4xkm")

[node name="Camera2D" type="Camera2D" parent="."]
